case study_religion income
…
is it tidy data? why?

it is not tidy data bc all of these variables are in different colums.

How to convert it to tidy data? Do whatever you consider to end up with a three column table: religion, income and people

tidy_relig_income <- 
  relig_income |> 
  pivot_longer(cols = "<$10k":"Don't know/refused", 
               names_to = "income", 
               values_to = "people" )
tidy_relig_income

# A tibble: 180 × 3
   religion income             people
   <chr>    <chr>               <dbl>
 1 Agnostic <$10k                  27
 2 Agnostic $10-20k                34
 3 Agnostic $20-30k                60
 4 Agnostic $30-40k                81
 5 Agnostic $40-50k                76
 6 Agnostic $50-75k               137
 7 Agnostic $75-100k              122
 8 Agnostic $100-150k             109
 9 Agnostic >150k                  84
10 Agnostic Don't know/refused     96
# ℹ 170 more rows

Using the tidy table above, separate the income variable into two, the lower and upper income limits (income_inf and income_sup).

tidy_relig_income |> separate(col = "income", into = c("income_inf", "income_sup"), sep = "-")

Warning: Expected 2 pieces. Missing pieces filled with `NA` in 54 rows [1, 9, 10, 11,
19, 20, 21, 29, 30, 31, 39, 40, 41, 49, 50, 51, 59, 60, 61, 69, ...].

# A tibble: 180 × 4
   religion income_inf         income_sup people
   <chr>    <chr>              <chr>       <dbl>
 1 Agnostic <$10k              <NA>           27
 2 Agnostic $10                20k            34
 3 Agnostic $20                30k            60
 4 Agnostic $30                40k            81
 5 Agnostic $40                50k            76
 6 Agnostic $50                75k           137
 7 Agnostic $75                100k          122
 8 Agnostic $100               150k          109
 9 Agnostic >150k              <NA>           84
10 Agnostic Don't know/refused <NA>           96
# ℹ 170 more rows

If you look at the first column the “$10k” should be an upper dimension, not a lower one. How do you tell it to separate that case?

tidy_relig_income |> separate(col = income, into = c("income_inf", "income_sup"), sep = "-|<")

Warning: Expected 2 pieces. Missing pieces filled with `NA` in 36 rows [9, 10, 19, 20,
29, 30, 39, 40, 49, 50, 59, 60, 69, 70, 79, 80, 89, 90, 99, 100, ...].

# A tibble: 180 × 4
   religion income_inf           income_sup people
   <chr>    <chr>                <chr>       <dbl>
 1 Agnostic ""                   $10k           27
 2 Agnostic "$10"                20k            34
 3 Agnostic "$20"                30k            60
 4 Agnostic "$30"                40k            81
 5 Agnostic "$40"                50k            76
 6 Agnostic "$50"                75k           137
 7 Agnostic "$75"                100k          122
 8 Agnostic "$100"               150k          109
 9 Agnostic ">150k"              <NA>           84
10 Agnostic "Don't know/refused" <NA>           96
# ℹ 170 more rows
…
